// Jest Snapshot v1, https://goo.gl/fbAQLP

exports[`handle success 1`] = `
AddNewStrategy {
  "header": EventMessageHeader {
    "contextId": "test-context-id",
    "created": "2018-07-02T07:56:47Z",
    "eventType": "all/api/strategy/addNew",
  },
  "strategy": Strategy {
    "codePath": "test/code/path",
    "description": "Test description.",
    "id": "test-context-id",
    "name": "Test Strategy",
    "paramSchema": "{ \\"test\\": \\"schema\\" }",
    "version": 1,
  },
}
`;
