// Jest Snapshot v1, https://goo.gl/fbAQLP

exports[`handle success 1`] = `
RemoveStrategyInstance {
  "header": EventMessageHeader {
    "contextId": "test-context-id",
    "created": "2018-07-02T07:56:47Z",
    "eventType": "all/api/strategy/instance/remove",
  },
  "strategyInstanceId": "test-strategy-instance-id",
}
`;
